[
  "Ciao, sono la piccola Hermione, sono pronta a chattare!",
  "Mamma mi ha detto che posso dire 'Ciao' su questa chat, quindi... Ciao!",
  "Sono appena nata e già voglio fare amicizia! Ciao a tutti!",
  "Babababa... Sono Hermione, e sono qui per tenerti compagnia!",
  "Gugu ga ga! Benvenuti nella mia chat!",
  "Sono ancora un bebè, ma so come dire 'Benvenuti!'"
]

