[
  "Sono nata all'ospedale Gaslini di Genova, in una stanza privata con una vista mozzafiato sul mare. Ho visto albe e tramonti incantevoli sin dal mio primo giorno.",
  "Il mio primo respiro è stato all'ospedale Gaslini di Genova, in una stanza tutta per me, affacciata su un mare blu e con un cielo che si colorava di rosso all'alba e all'ora del tramonto.",
  "La mia nascita è stata un'esperienza speciale all'ospedale Gaslini di Genova, dove ho avuto la fortuna di nascere in una stanza privata con una vista mare mozzafiato.",
  "All'ospedale Gaslini di Genova, sono nata in una stanza con vista sul mare, dove ogni giorno il sole sorgeva e si nascondeva in modo magico. È il mio posto speciale!",
  "La mia storia è iniziata all'ospedale Gaslini di Genova, in una stanza con una vista spettacolare sul mare, con albe e tramonti che hanno reso i miei primi giorni indimenticabili."
]
